<svg width="4096" height="4096" viewBox="0 0 4096 4096" fill="none" xmlns="http://www.w3.org/2000/svg">
    <path fill="var(--forecolor, #284577)" fill-rule="evenodd" clip-rule="evenodd" d="M2907.68 379.514C2727.19 386.466 2574.22 435.219 2431.69 531.218C2312.39 611.565 2198.83 736.61 2121.12 873.172L2113.25 887.016L2109.71 883.136C2107.77 881.003 2098.76 870.963 2089.68 860.826C1823.29 563.262 1532.5 419.339 1197.68 419.339C875.109 419.339 610.048 558.01 468.432 800.856C219.597 1227.57 261.262 1765.87 586.194 2322.33C929.969 2911.06 1569.54 3455.68 2189.16 3687.34C2219.76 3698.78 2272.67 3717.18 2273.25 3716.59C2273.39 3716.44 2264.66 3712.31 2253.84 3707.4C1706.9 3458.96 1160.37 2974.94 813.514 2431.83C612.744 2117.45 503.401 1819.2 480.992 1524.83C478.726 1495.06 478.396 1390.57 480.482 1363.33C494.282 1183.12 542.686 1028.51 628.429 890.765C779.125 648.676 1101.45 552 1439.68 647.447C1630.99 701.435 1823.65 840.812 1993.8 1048.33C2027.69 1089.65 2036.68 1101.88 2103.66 1197.83C2135.71 1243.75 2162.26 1281.68 2162.64 1282.11C2163.03 1282.53 2168.42 1268.36 2174.62 1250.61C2228.86 1095.48 2232.63 1084.98 2241.85 1063.33C2287.11 957.044 2360.66 847.151 2435.4 774.169C2577.06 635.824 2725.76 570.529 2919.18 561.742C3045.32 556.011 3170.18 591.224 3284.68 664.821C3546.18 832.907 3672.08 1143.88 3640.15 1542.83C3599.5 2050.73 3224.97 2755.17 2705.75 3300.33C2690.04 3316.83 2679.65 3328.3 2682.68 3325.83C2792.66 3235.8 2936.29 3094.96 3046.32 2969.21C3478.7 2475.13 3748.7 1932.27 3783.13 1487.83C3790.2 1396.46 3788.73 1295.2 3779.15 1214.33C3759.08 1044.97 3703.68 887.986 3619.66 762.328C3456.59 518.452 3178.76 369.074 2907.68 379.514ZM2884.18 1072.91C2762.93 1084.24 2660.44 1305.44 2708.85 1451.33C2740.08 1545.41 2811.45 1557.9 2880.66 1481.38C2951.58 1402.97 2990.01 1303.77 2990.14 1198.83C2990.22 1133.62 2975.65 1100.33 2938.98 1081.95C2924.04 1074.47 2903.58 1071.09 2884.18 1072.91ZM2547.18 1170.57C2423.42 1176.64 2358.74 1426.47 2446.78 1558.36C2490.32 1623.57 2549.61 1622.75 2593.29 1556.33C2647.31 1474.17 2665.92 1355.16 2640.19 1256.31C2624.53 1196.11 2594.32 1168.26 2547.18 1170.57ZM3202.3 1249.38C3152.86 1259.21 3080.74 1313.17 3031.98 1376.83C2968.27 1460 2935.91 1568.34 2960.14 1617.33C2979.86 1657.2 3029.4 1668.85 3091.68 1648.26C3196.23 1613.7 3295.11 1496.07 3312.3 1385.81C3325.38 1301.92 3271.87 1235.56 3202.3 1249.38ZM2770.18 1594.55C2716.41 1596.14 2645.01 1612.29 2583.94 1636.68C2394.41 1712.38 2299.59 1846.69 2354.7 1961.39C2377.96 2009.8 2414.92 2028.08 2503.18 2034.83C2601.44 2042.34 2634.41 2058.45 2684.19 2123.24C2691.33 2132.54 2702.56 2147.16 2709.14 2155.74C2753.27 2213.23 2795.9 2234.58 2848.18 2225.33C2986.94 2200.8 3041.45 1999.73 2968.87 1780.15C2924.66 1646.42 2866.11 1591.71 2770.18 1594.55ZM3314.18 1595.89C3246.11 1605.1 3154.59 1661.76 3101.08 1727.83C3009.99 1840.3 3020.69 1926.42 3126.26 1930.52C3272.34 1936.19 3444.39 1768.71 3408.97 1655.33C3395.58 1612.46 3359.4 1589.78 3314.18 1595.89ZM1653.08 1837.21C1599.04 1846.08 1571.65 1883.03 1574.04 1943.83C1578.49 2057.17 1652.48 2188.84 1747.52 2252.54C1828.13 2306.58 1893.91 2263.25 1897.39 2153.83C1902.42 1995.7 1765.84 1818.7 1653.08 1837.21ZM2001.18 1882.35C1952.37 1893.1 1931.2 1933.23 1931.28 2014.83C1931.37 2108.33 1965.26 2201.17 2023.46 2267.33C2071.55 2322.01 2124.71 2322.01 2159.92 2267.33C2203.71 2199.32 2201.04 2079.94 2153.68 1988.15C2113.04 1909.4 2056.49 1870.16 2001.18 1882.35ZM1356.68 2060.46C1317.35 2068.04 1290.03 2098.41 1282.23 2143.21C1270.07 2213.03 1330.14 2317.9 1417.94 2380.12C1537.51 2464.86 1670.73 2457.98 1675.4 2366.83C1678.29 2310.39 1626.36 2216.03 1558.18 2153.84C1490.66 2092.26 1402.84 2051.56 1356.68 2060.46ZM1889.68 2331.43C1788.05 2337.13 1739.5 2372.9 1708.67 2464.83C1661.42 2605.73 1673.33 2785.23 1736.52 2884.33C1788.43 2965.75 1886.55 2994.01 1950.68 2946.02C1972.64 2929.59 1985.54 2911.83 2014.71 2857.83C2059.99 2773.99 2086.81 2752.64 2173.18 2731.68C2229.83 2717.93 2241.93 2714.22 2261.01 2704.73C2348.02 2661.45 2354.15 2544.34 2273.73 2461.46C2195.06 2380.38 2027.65 2323.69 1889.68 2331.43ZM1300.31 2421.32C1261.56 2429.34 1237.97 2456.86 1233.6 2499.14C1225.39 2578.49 1325.53 2681.23 1442.41 2713.38C1571.98 2749.02 1663.63 2695.48 1622.67 2608.07C1601.76 2563.44 1550.92 2510.74 1494.98 2475.7C1433.02 2436.89 1344.53 2412.17 1300.31 2421.32Z"/>
</svg>
